1|OPENED|44545|192.168.1.23|7|2|20180201|10:18:27|3|20180201
101|7|1|20180201|11:35:09|3|||||105||N|SALE
111|20|1|800|800|||||||||800|||18|20
111|5|1|150|150|||||||||150|||18|5
111|5|1|150|150|||||||||150|||18|5
121|1100||||||N||||1100
131|T|CANCEL|RS|1.0000000|1100|||1100
101|7|1|20180201|12:10:42|3|||||106||N|SALE
111|1|1|1000|1000|||||||||1000|||18|1
111|1|1|1000|1000|||||||||1000|||18|1
121|2000||||||N||||2000
131|T|CANCEL|RS|1.0000000|2000|||2000
101|7|1|20180201|12:18:19|3|||||107||N|SALE
111|5|1|150|150|||||||||150|||18|5
111|5|1|150|150|||||||||150|||18|5
121|300||||||N||||300
131|T|CANCEL|RS|1.0000000|300|||300
101|7|1|20180201|12:18:34|3|||||108||N|SALE
111|5|1|150|150|||||||||150|||18|5
111|5|1|150|150|||||||||150|||18|5
121|300||||||N||||300
131|T|CANCEL|RS|1.0000000|300|||300
1|CLOSED|44545|192.168.1.23|7|2|20180201|12:29:29|3|20180201